%YAML 1.1
%TAG !u! tag:unity3d.com,2011:
--- !u!74 &7400000
AnimationClip:
  m_ObjectHideFlags: 0
  m_PrefabParentObject: {fileID: 0}
  m_PrefabInternal: {fileID: 0}
  m_Name: Compress
  serializedVersion: 6
  m_Legacy: 0
  m_Compressed: 0
  m_UseHighQualityCurve: 1
  m_RotationCurves: []
  m_CompressedRotationCurves: []
  m_EulerCurves: []
  m_PositionCurves:
  - curve:
      serializedVersion: 2
      m_Curve:
      - time: 0
        value: {x: 0, y: 0.23, z: 0.575}
        inSlope: {x: 0, y: -0.416, z: 0}
        outSlope: {x: 0, y: -0.416, z: 0}
        tangentMode: 0
      - time: 1
        value: {x: 0, y: -0.186, z: 0.575}
        inSlope: {x: 0, y: -0.416, z: 0}
        outSlope: {x: 0, y: -0.416, z: 0}
        tangentMode: 0
      m_PreInfinity: 2
      m_PostInfinity: 2
      m_RotationOrder: 4
    path: eyes
  - curve:
      serializedVersion: 2
      m_Curve:
      - time: 0
        value: {x: -0.27082825, y: 0, z: 0.00000001513958}
        inSlope: {x: 0.20082825, y: -0.008, z: 0.011999985}
        outSlope: {x: 0.20082825, y: -0.008, z: 0.011999985}
        tangentMode: 0
      - time: 1
        value: {x: -0.07, y: -0.008, z: 0.012}
        inSlope: {x: 0.20082825, y: -0.008, z: 0.011999985}
        outSlope: {x: 0.20082825, y: -0.008, z: 0.011999985}
        tangentMode: 0
      m_PreInfinity: 2
      m_PostInfinity: 2
      m_RotationOrder: 4
    path: Model/Bone001/Bone002/Bone003/Bone004/Bone005/Bone006
  - curve:
      serializedVersion: 2
      m_Curve:
      - time: 0
        value: {x: -0.3173118, y: 0.0000000064343215, z: 0.000000012111664}
        inSlope: {x: 0.1943118, y: -0.0000000064343215, z: 0.0009999879}
        outSlope: {x: 0.1943118, y: -0.0000000064343215, z: 0.0009999879}
        tangentMode: 0
      - time: 1
        value: {x: -0.123, y: -0, z: 0.001}
        inSlope: {x: 0.1943118, y: -0.0000000064343215, z: 0.0009999879}
        outSlope: {x: 0.1943118, y: -0.0000000064343215, z: 0.0009999879}
        tangentMode: 0
      m_PreInfinity: 2
      m_PostInfinity: 2
      m_RotationOrder: 4
    path: Model/Bone001/Bone002/Bone003/Bone004/Bone005
  - curve:
      serializedVersion: 2
      m_Curve:
      - time: 0
        value: {x: -0.2658763, y: 0.00000013020039, z: 0.000000010976195}
        inSlope: {x: 0.055505157, y: -0.048000522, z: -0.004000044}
        outSlope: {x: 0.055505157, y: -0.048000522, z: -0.004000044}
        tangentMode: 0
      - time: 0.25
        value: {x: -0.252, y: -0.012, z: -0.001}
        inSlope: {x: 0.048521817, y: -0.15323102, z: -0.0043077143}
        outSlope: {x: 0.048521817, y: -0.15323102, z: -0.0043077143}
        tangentMode: 0
      - time: 0.46666667
        value: {x: -0.243, y: -0.068, z: -0.002}
        inSlope: {x: 0.05934066, y: -0.004945047, z: -0.0051648356}
        outSlope: {x: 0.05934066, y: -0.004945047, z: -0.0051648356}
        tangentMode: 0
      - time: 0.81666666
        value: {x: -0.216, y: 0.019, z: -0.004}
        inSlope: {x: 0.06584416, y: 0.072467536, z: -0.005584415}
        outSlope: {x: 0.06584416, y: 0.072467536, z: -0.005584415}
        tangentMode: 0
      - time: 1
        value: {x: -0.206, y: 0, z: -0.005}
        inSlope: {x: 0.054545484, y: -0.10363636, z: -0.0054545435}
        outSlope: {x: 0.054545484, y: -0.10363636, z: -0.0054545435}
        tangentMode: 0
      m_PreInfinity: 2
      m_PostInfinity: 2
      m_RotationOrder: 4
    path: Model/Bone001/Bone002/Bone003/Bone004
  - curve:
      serializedVersion: 2
      m_Curve:
      - time: 0
        value: {x: -0.28874713, y: 0.0000000098407265, z: 0.00000001476109}
        inSlope: {x: 0.086747125, y: -0.0030000098, z: -0.00000001476109}
        outSlope: {x: 0.086747125, y: -0.0030000098, z: -0.00000001476109}
        tangentMode: 0
      - time: 1
        value: {x: -0.202, y: -0.003, z: -0}
        inSlope: {x: 0.086747125, y: -0.0030000098, z: -0.00000001476109}
        outSlope: {x: 0.086747125, y: -0.0030000098, z: -0.00000001476109}
        tangentMode: 0
      m_PreInfinity: 2
      m_PostInfinity: 2
      m_RotationOrder: 4
    path: Model/Bone001/Bone002/Bone003
  - curve:
      serializedVersion: 2
      m_Curve:
      - time: 0
        value: {x: -0.25526565, y: -0.000000060629894, z: 0.0000000111575575}
        inSlope: {x: 0.12526566, y: 0.0030000606, z: -0.0000000111575575}
        outSlope: {x: 0.12526566, y: 0.0030000606, z: -0.0000000111575575}
        tangentMode: 0
      - time: 1
        value: {x: -0.13, y: 0.003, z: -0}
        inSlope: {x: 0.12526566, y: 0.0030000606, z: -0.0000000111575575}
        outSlope: {x: 0.12526566, y: 0.0030000606, z: -0.0000000111575575}
        tangentMode: 0
      m_PreInfinity: 2
      m_PostInfinity: 2
      m_RotationOrder: 4
    path: Model/Bone001/Bone002
  - curve:
      serializedVersion: 2
      m_Curve:
      - time: 0
        value: {x: -0, y: 0, z: 0}
        inSlope: {x: 0, y: -0.07, z: 0}
        outSlope: {x: 0, y: -0.07, z: 0}
        tangentMode: 0
      - time: 1
        value: {x: -0, y: -0.07, z: 0}
        inSlope: {x: 0, y: -0.07, z: 0}
        outSlope: {x: 0, y: -0.07, z: 0}
        tangentMode: 0
      m_PreInfinity: 2
      m_PostInfinity: 2
      m_RotationOrder: 4
    path: Model/Bone001
  - curve:
      serializedVersion: 2
      m_Curve:
      - time: 0
        value: {x: 0.000000044703, y: -0.46449, z: 0}
        inSlope: {x: 0.12666635, y: 0.043266613, z: 0}
        outSlope: {x: 0.12666635, y: 0.043266613, z: 0}
        tangentMode: 0
      - time: 0.15
        value: {x: 0.019, y: -0.458, z: 0}
        inSlope: {x: -0.04303045, y: 0.05436056, z: 0}
        outSlope: {x: -0.04303045, y: 0.05436056, z: 0}
        tangentMode: 0
      - time: 0.33333334
        value: {x: -0.02, y: -0.446, z: 0}
        inSlope: {x: -0.012613624, y: 0.05147724, z: 0}
        outSlope: {x: -0.012613624, y: 0.05147724, z: 0}
        tangentMode: 0
      - time: 0.46666667
        value: {x: 0.005, y: -0.441, z: 0}
        inSlope: {x: -0.13874996, y: 0.060000002, z: 0}
        outSlope: {x: -0.13874996, y: 0.060000002, z: 0}
        tangentMode: 0
      - time: 0.6
        value: {x: -0.057, y: -0.43, z: 0}
        inSlope: {x: -0.026785582, y: 0.05410726, z: 0}
        outSlope: {x: -0.026785582, y: 0.05410726, z: 0}
        tangentMode: 0
      - time: 0.71666664
        value: {x: -0.009, y: -0.427, z: 0}
        inSlope: {x: 0.012857243, y: 0.051428553, z: 0}
        outSlope: {x: 0.012857243, y: 0.051428553, z: 0}
        tangentMode: 0
      - time: 0.8333333
        value: {x: -0.054, y: -0.418, z: 0}
        inSlope: {x: -0.030856594, y: 0.05486135, z: 0}
        outSlope: {x: -0.030856594, y: 0.05486135, z: 0}
        tangentMode: 0
      - time: 1
        value: {x: 0.0000001844, y: -0.41257, z: 0}
        inSlope: {x: 0.32400107, y: 0.032580074, z: 0}
        outSlope: {x: 0.32400107, y: 0.032580074, z: 0}
        tangentMode: 0
      m_PreInfinity: 2
      m_PostInfinity: 2
      m_RotationOrder: 4
    path: Model
  m_ScaleCurves:
  - curve:
      serializedVersion: 2
      m_Curve:
      - time: 0
        value: {x: 0.18, y: 0.18, z: 0.18}
        inSlope: {x: -0.036000013, y: -0.07000001, z: -0.036000013}
        outSlope: {x: -0.036000013, y: -0.07000001, z: -0.036000013}
        tangentMode: 0
      - time: 1
        value: {x: 0.144, y: 0.11, z: 0.144}
        inSlope: {x: -0.036000013, y: -0.07000001, z: -0.036000013}
        outSlope: {x: -0.036000013, y: -0.07000001, z: -0.036000013}
        tangentMode: 0
      m_PreInfinity: 2
      m_PostInfinity: 2
      m_RotationOrder: 4
    path: eyes
  - curve:
      serializedVersion: 2
      m_Curve:
      - time: 0
        value: {x: 1, y: 1, z: 1}
        inSlope: {x: -0.14999998, y: -0.14999998, z: -0.14999998}
        outSlope: {x: -0.14999998, y: -0.14999998, z: -0.14999998}
        tangentMode: 0
      - time: 1
        value: {x: 0.85, y: 0.85, z: 0.85}
        inSlope: {x: -0.14999998, y: -0.14999998, z: -0.14999998}
        outSlope: {x: -0.14999998, y: -0.14999998, z: -0.14999998}
        tangentMode: 0
      m_PreInfinity: 2
      m_PostInfinity: 2
      m_RotationOrder: 4
    path: Model/Bone001/Bone002/Bone003/Bone004/Bone005/Bone006
  - curve:
      serializedVersion: 2
      m_Curve:
      - time: 0
        value: {x: 1, y: 1, z: 1}
        inSlope: {x: 0, y: -1.2176471, z: 0}
        outSlope: {x: 0, y: -1.2176471, z: 0}
        tangentMode: 0
      - time: 0.56666666
        value: {x: 1, y: 0.31, z: 1}
        inSlope: {x: 0, y: -1.2176471, z: 0}
        outSlope: {x: 0, y: -1.2176471, z: 0}
        tangentMode: 0
      m_PreInfinity: 2
      m_PostInfinity: 2
      m_RotationOrder: 4
    path: eyes/left
  - curve:
      serializedVersion: 2
      m_Curve:
      - time: 0
        value: {x: 1, y: 1, z: 1}
        inSlope: {x: 0, y: 0, z: 0}
        outSlope: {x: 0, y: 0, z: 0}
        tangentMode: 0
      - time: 0.23333333
        value: {x: 1, y: 1, z: 1}
        inSlope: {x: 0, y: -0.7285715, z: 0}
        outSlope: {x: 0, y: -0.7285715, z: 0}
        tangentMode: 0
      - time: 0.7
        value: {x: 1, y: 0.32, z: 1}
        inSlope: {x: 0, y: -1.457143, z: 0}
        outSlope: {x: 0, y: -1.457143, z: 0}
        tangentMode: 0
      m_PreInfinity: 2
      m_PostInfinity: 2
      m_RotationOrder: 4
    path: eyes/right
  m_FloatCurves: []
  m_PPtrCurves: []
  m_SampleRate: 60
  m_WrapMode: 0
  m_Bounds:
    m_Center: {x: 0, y: 0, z: 0}
    m_Extent: {x: 0, y: 0, z: 0}
  m_ClipBindingConstant:
    genericBindings:
    - path: 2803512470
      attribute: 1
      script: {fileID: 0}
      classID: 4
      customType: 0
      isPPtrCurve: 0
    - path: 3513073661
      attribute: 1
      script: {fileID: 0}
      classID: 4
      customType: 0
      isPPtrCurve: 0
    - path: 638489886
      attribute: 1
      script: {fileID: 0}
      classID: 4
      customType: 0
      isPPtrCurve: 0
    - path: 664958075
      attribute: 1
      script: {fileID: 0}
      classID: 4
      customType: 0
      isPPtrCurve: 0
    - path: 4143564877
      attribute: 1
      script: {fileID: 0}
      classID: 4
      customType: 0
      isPPtrCurve: 0
    - path: 640769999
      attribute: 1
      script: {fileID: 0}
      classID: 4
      customType: 0
      isPPtrCurve: 0
    - path: 1223600241
      attribute: 1
      script: {fileID: 0}
      classID: 4
      customType: 0
      isPPtrCurve: 0
    - path: 374627805
      attribute: 1
      script: {fileID: 0}
      classID: 4
      customType: 0
      isPPtrCurve: 0
    - path: 2803512470
      attribute: 3
      script: {fileID: 0}
      classID: 4
      customType: 0
      isPPtrCurve: 0
    - path: 3513073661
      attribute: 3
      script: {fileID: 0}
      classID: 4
      customType: 0
      isPPtrCurve: 0
    - path: 258524786
      attribute: 3
      script: {fileID: 0}
      classID: 4
      customType: 0
      isPPtrCurve: 0
    - path: 1239253839
      attribute: 3
      script: {fileID: 0}
      classID: 4
      customType: 0
      isPPtrCurve: 0
    pptrCurveMapping: []
  m_AnimationClipSettings:
    serializedVersion: 2
    m_AdditiveReferencePoseClip: {fileID: 0}
    m_AdditiveReferencePoseTime: 0
    m_StartTime: 0
    m_StopTime: 1
    m_OrientationOffsetY: 0
    m_Level: 0
    m_CycleOffset: 0
    m_HasAdditiveReferencePose: 0
    m_LoopTime: 0
    m_LoopBlend: 0
    m_LoopBlendOrientation: 0
    m_LoopBlendPositionY: 0
    m_LoopBlendPositionXZ: 0
    m_KeepOriginalOrientation: 0
    m_KeepOriginalPositionY: 1
    m_KeepOriginalPositionXZ: 0
    m_HeightFromFeet: 0
    m_Mirror: 0
  m_EditorCurves:
  - curve:
      serializedVersion: 2
      m_Curve:
      - time: 0
        value: 0
        inSlope: 0
        outSlope: 0
        tangentMode: 10
      - time: 1
        value: 0
        inSlope: 0
        outSlope: 0
        tangentMode: 10
      m_PreInfinity: 2
      m_PostInfinity: 2
      m_RotationOrder: 4
    attribute: m_LocalPosition.x
    path: eyes
    classID: 4
    script: {fileID: 0}
  - curve:
      serializedVersion: 2
      m_Curve:
      - time: 0
        value: 0.23
        inSlope: -0.416
        outSlope: -0.416
        tangentMode: 10
      - time: 1
        value: -0.186
        inSlope: -0.416
        outSlope: -0.416
        tangentMode: 10
      m_PreInfinity: 2
      m_PostInfinity: 2
      m_RotationOrder: 4
    attribute: m_LocalPosition.y
    path: eyes
    classID: 4
    script: {fileID: 0}
  - curve:
      serializedVersion: 2
      m_Curve:
      - time: 0
        value: 0.575
        inSlope: 0
        outSlope: 0
        tangentMode: 10
      - time: 1
        value: 0.575
        inSlope: 0
        outSlope: 0
        tangentMode: 10
      m_PreInfinity: 2
      m_PostInfinity: 2
      m_RotationOrder: 4
    attribute: m_LocalPosition.z
    path: eyes
    classID: 4
    script: {fileID: 0}
  - curve:
      serializedVersion: 2
      m_Curve:
      - time: 0
        value: -0.27082825
        inSlope: 0.20082825
        outSlope: 0.20082825
        tangentMode: 10
      - time: 1
        value: -0.07
        inSlope: 0.20082825
        outSlope: 0.20082825
        tangentMode: 10
      m_PreInfinity: 2
      m_PostInfinity: 2
      m_RotationOrder: 4
    attribute: m_LocalPosition.x
    path: Model/Bone001/Bone002/Bone003/Bone004/Bone005/Bone006
    classID: 4
    script: {fileID: 0}
  - curve:
      serializedVersion: 2
      m_Curve:
      - time: 0
        value: 0
        inSlope: -0.008
        outSlope: -0.008
        tangentMode: 10
      - time: 1
        value: -0.008
        inSlope: -0.008
        outSlope: -0.008
        tangentMode: 10
      m_PreInfinity: 2
      m_PostInfinity: 2
      m_RotationOrder: 4
    attribute: m_LocalPosition.y
    path: Model/Bone001/Bone002/Bone003/Bone004/Bone005/Bone006
    classID: 4
    script: {fileID: 0}
  - curve:
      serializedVersion: 2
      m_Curve:
      - time: 0
        value: 0.00000001513958
        inSlope: 0.011999985
        outSlope: 0.011999985
        tangentMode: 10
      - time: 1
        value: 0.012
        inSlope: 0.011999985
        outSlope: 0.011999985
        tangentMode: 10
      m_PreInfinity: 2
      m_PostInfinity: 2
      m_RotationOrder: 4
    attribute: m_LocalPosition.z
    path: Model/Bone001/Bone002/Bone003/Bone004/Bone005/Bone006
    classID: 4
    script: {fileID: 0}
  - curve:
      serializedVersion: 2
      m_Curve:
      - time: 0
        value: -0.3173118
        inSlope: 0.1943118
        outSlope: 0.1943118
        tangentMode: 10
      - time: 1
        value: -0.123
        inSlope: 0.1943118
        outSlope: 0.1943118
        tangentMode: 10
      m_PreInfinity: 2
      m_PostInfinity: 2
      m_RotationOrder: 4
    attribute: m_LocalPosition.x
    path: Model/Bone001/Bone002/Bone003/Bone004/Bone005
    classID: 4
    script: {fileID: 0}
  - curve:
      serializedVersion: 2
      m_Curve:
      - time: 0
        value: 0.0000000064343215
        inSlope: -0.0000000064343215
        outSlope: -0.0000000064343215
        tangentMode: 10
      - time: 1
        value: -0
        inSlope: -0.0000000064343215
        outSlope: -0.0000000064343215
        tangentMode: 10
      m_PreInfinity: 2
      m_PostInfinity: 2
      m_RotationOrder: 4
    attribute: m_LocalPosition.y
    path: Model/Bone001/Bone002/Bone003/Bone004/Bone005
    classID: 4
    script: {fileID: 0}
  - curve:
      serializedVersion: 2
      m_Curve:
      - time: 0
        value: 0.000000012111664
        inSlope: 0.0009999879
        outSlope: 0.0009999879
        tangentMode: 10
      - time: 1
        value: 0.001
        inSlope: 0.0009999879
        outSlope: 0.0009999879
        tangentMode: 10
      m_PreInfinity: 2
      m_PostInfinity: 2
      m_RotationOrder: 4
    attribute: m_LocalPosition.z
    path: Model/Bone001/Bone002/Bone003/Bone004/Bone005
    classID: 4
    script: {fileID: 0}
  - curve:
      serializedVersion: 2
      m_Curve:
      - time: 0
        value: -0.2658763
        inSlope: 0.055505157
        outSlope: 0.055505157
        tangentMode: 10
      - time: 0.25
        value: -0.252
        inSlope: 0.048521817
        outSlope: 0.048521817
        tangentMode: 10
      - time: 0.46666667
        value: -0.243
        inSlope: 0.05934066
        outSlope: 0.05934066
        tangentMode: 10
      - time: 0.81666666
        value: -0.216
        inSlope: 0.06584416
        outSlope: 0.06584416
        tangentMode: 10
      - time: 1
        value: -0.206
        inSlope: 0.054545484
        outSlope: 0.054545484
        tangentMode: 10
      m_PreInfinity: 2
      m_PostInfinity: 2
      m_RotationOrder: 4
    attribute: m_LocalPosition.x
    path: Model/Bone001/Bone002/Bone003/Bone004
    classID: 4
    script: {fileID: 0}
  - curve:
      serializedVersion: 2
      m_Curve:
      - time: 0
        value: 0.00000013020039
        inSlope: -0.048000522
        outSlope: -0.048000522
        tangentMode: 10
      - time: 0.25
        value: -0.012
        inSlope: -0.15323102
        outSlope: -0.15323102
        tangentMode: 10
      - time: 0.46666667
        value: -0.068
        inSlope: -0.004945047
        outSlope: -0.004945047
        tangentMode: 10
      - time: 0.81666666
        value: 0.019
        inSlope: 0.072467536
        outSlope: 0.072467536
        tangentMode: 10
      - time: 1
        value: 0
        inSlope: -0.10363636
        outSlope: -0.10363636
        tangentMode: 10
      m_PreInfinity: 2
      m_PostInfinity: 2
      m_RotationOrder: 4
    attribute: m_LocalPosition.y
    path: Model/Bone001/Bone002/Bone003/Bone004
    classID: 4
    script: {fileID: 0}
  - curve:
      serializedVersion: 2
      m_Curve:
      - time: 0
        value: 0.000000010976195
        inSlope: -0.004000044
        outSlope: -0.004000044
        tangentMode: 10
      - time: 0.25
        value: -0.001
        inSlope: -0.0043077143
        outSlope: -0.0043077143
        tangentMode: 10
      - time: 0.46666667
        value: -0.002
        inSlope: -0.0051648356
        outSlope: -0.0051648356
        tangentMode: 10
      - time: 0.81666666
        value: -0.004
        inSlope: -0.005584415
        outSlope: -0.005584415
        tangentMode: 10
      - time: 1
        value: -0.005
        inSlope: -0.0054545435
        outSlope: -0.0054545435
        tangentMode: 10
      m_PreInfinity: 2
      m_PostInfinity: 2
      m_RotationOrder: 4
    attribute: m_LocalPosition.z
    path: Model/Bone001/Bone002/Bone003/Bone004
    classID: 4
    script: {fileID: 0}
  - curve:
      serializedVersion: 2
      m_Curve:
      - time: 0
        value: -0.28874713
        inSlope: 0.086747125
        outSlope: 0.086747125
        tangentMode: 10
      - time: 1
        value: -0.202
        inSlope: 0.086747125
        outSlope: 0.086747125
        tangentMode: 10
      m_PreInfinity: 2
      m_PostInfinity: 2
      m_RotationOrder: 4
    attribute: m_LocalPosition.x
    path: Model/Bone001/Bone002/Bone003
    classID: 4
    script: {fileID: 0}
  - curve:
      serializedVersion: 2
      m_Curve:
      - time: 0
        value: 0.0000000098407265
        inSlope: -0.0030000098
        outSlope: -0.0030000098
        tangentMode: 10
      - time: 1
        value: -0.003
        inSlope: -0.0030000098
        outSlope: -0.0030000098
        tangentMode: 10
      m_PreInfinity: 2
      m_PostInfinity: 2
      m_RotationOrder: 4
    attribute: m_LocalPosition.y
    path: Model/Bone001/Bone002/Bone003
    classID: 4
    script: {fileID: 0}
  - curve:
      serializedVersion: 2
      m_Curve:
      - time: 0
        value: 0.00000001476109
        inSlope: -0.00000001476109
        outSlope: -0.00000001476109
        tangentMode: 10
      - time: 1
        value: -0
        inSlope: -0.00000001476109
        outSlope: -0.00000001476109
        tangentMode: 10
      m_PreInfinity: 2
      m_PostInfinity: 2
      m_RotationOrder: 4
    attribute: m_LocalPosition.z
    path: Model/Bone001/Bone002/Bone003
    classID: 4
    script: {fileID: 0}
  - curve:
      serializedVersion: 2
      m_Curve:
      - time: 0
        value: -0.25526565
        inSlope: 0.12526566
        outSlope: 0.12526566
        tangentMode: 10
      - time: 1
        value: -0.13
        inSlope: 0.12526566
        outSlope: 0.12526566
        tangentMode: 10
      m_PreInfinity: 2
      m_PostInfinity: 2
      m_RotationOrder: 4
    attribute: m_LocalPosition.x
    path: Model/Bone001/Bone002
    classID: 4
    script: {fileID: 0}
  - curve:
      serializedVersion: 2
      m_Curve:
      - time: 0
        value: -0.000000060629894
        inSlope: 0.0030000606
        outSlope: 0.0030000606
        tangentMode: 10
      - time: 1
        value: 0.003
        inSlope: 0.0030000606
        outSlope: 0.0030000606
        tangentMode: 10
      m_PreInfinity: 2
      m_PostInfinity: 2
      m_RotationOrder: 4
    attribute: m_LocalPosition.y
    path: Model/Bone001/Bone002
    classID: 4
    script: {fileID: 0}
  - curve:
      serializedVersion: 2
      m_Curve:
      - time: 0
        value: 0.0000000111575575
        inSlope: -0.0000000111575575
        outSlope: -0.0000000111575575
        tangentMode: 10
      - time: 1
        value: -0
        inSlope: -0.0000000111575575
        outSlope: -0.0000000111575575
        tangentMode: 10
      m_PreInfinity: 2
      m_PostInfinity: 2
      m_RotationOrder: 4
    attribute: m_LocalPosition.z
    path: Model/Bone001/Bone002
    classID: 4
    script: {fileID: 0}
  - curve:
      serializedVersion: 2
      m_Curve:
      - time: 0
        value: -0
        inSlope: 0
        outSlope: 0
        tangentMode: 10
      - time: 1
        value: -0
        inSlope: 0
        outSlope: 0
        tangentMode: 10
      m_PreInfinity: 2
      m_PostInfinity: 2
      m_RotationOrder: 4
    attribute: m_LocalPosition.x
    path: Model/Bone001
    classID: 4
    script: {fileID: 0}
  - curve:
      serializedVersion: 2
      m_Curve:
      - time: 0
        value: 0
        inSlope: -0.07
        outSlope: -0.07
        tangentMode: 10
      - time: 1
        value: -0.07
        inSlope: -0.07
        outSlope: -0.07
        tangentMode: 10
      m_PreInfinity: 2
      m_PostInfinity: 2
      m_RotationOrder: 4
    attribute: m_LocalPosition.y
    path: Model/Bone001
    classID: 4
    script: {fileID: 0}
  - curve:
      serializedVersion: 2
      m_Curve:
      - time: 0
        value: 0
        inSlope: 0
        outSlope: 0
        tangentMode: 10
      - time: 1
        value: 0
        inSlope: 0
        outSlope: 0
        tangentMode: 10
      m_PreInfinity: 2
      m_PostInfinity: 2
      m_RotationOrder: 4
    attribute: m_LocalPosition.z
    path: Model/Bone001
    classID: 4
    script: {fileID: 0}
  - curve:
      serializedVersion: 2
      m_Curve:
      - time: 0
        value: 0.000000044703
        inSlope: 0.12666635
        outSlope: 0.12666635
        tangentMode: 10
      - time: 0.15
        value: 0.019
        inSlope: -0.04303045
        outSlope: -0.04303045
        tangentMode: 10
      - time: 0.33333334
        value: -0.02
        inSlope: -0.012613624
        outSlope: -0.012613624
        tangentMode: 10
      - time: 0.46666667
        value: 0.005
        inSlope: -0.13874996
        outSlope: -0.13874996
        tangentMode: 10
      - time: 0.6
        value: -0.057
        inSlope: -0.026785582
        outSlope: -0.026785582
        tangentMode: 10
      - time: 0.71666664
        value: -0.009
        inSlope: 0.012857243
        outSlope: 0.012857243
        tangentMode: 10
      - time: 0.8333333
        value: -0.054
        inSlope: -0.030856594
        outSlope: -0.030856594
        tangentMode: 10
      - time: 1
        value: 0.0000001844
        inSlope: 0.32400107
        outSlope: 0.32400107
        tangentMode: 10
      m_PreInfinity: 2
      m_PostInfinity: 2
      m_RotationOrder: 4
    attribute: m_LocalPosition.x
    path: Model
    classID: 4
    script: {fileID: 0}
  - curve:
      serializedVersion: 2
      m_Curve:
      - time: 0
        value: -0.46449
        inSlope: 0.043266613
        outSlope: 0.043266613
        tangentMode: 10
      - time: 0.15
        value: -0.458
        inSlope: 0.05436056
        outSlope: 0.05436056
        tangentMode: 10
      - time: 0.33333334
        value: -0.446
        inSlope: 0.05147724
        outSlope: 0.05147724
        tangentMode: 10
      - time: 0.46666667
        value: -0.441
        inSlope: 0.060000002
        outSlope: 0.060000002
        tangentMode: 10
      - time: 0.6
        value: -0.43
        inSlope: 0.05410726
        outSlope: 0.05410726
        tangentMode: 10
      - time: 0.71666664
        value: -0.427
        inSlope: 0.051428553
        outSlope: 0.051428553
        tangentMode: 10
      - time: 0.8333333
        value: -0.418
        inSlope: 0.05486135
        outSlope: 0.05486135
        tangentMode: 10
      - time: 1
        value: -0.41257
        inSlope: 0.032580074
        outSlope: 0.032580074
        tangentMode: 10
      m_PreInfinity: 2
      m_PostInfinity: 2
      m_RotationOrder: 4
    attribute: m_LocalPosition.y
    path: Model
    classID: 4
    script: {fileID: 0}
  - curve:
      serializedVersion: 2
      m_Curve:
      - time: 0
        value: 0
        inSlope: 0
        outSlope: 0
        tangentMode: 10
      - time: 0.15
        value: 0
        inSlope: 0
        outSlope: 0
        tangentMode: 10
      - time: 0.33333334
        value: 0
        inSlope: 0
        outSlope: 0
        tangentMode: 10
      - time: 0.46666667
        value: 0
        inSlope: 0
        outSlope: 0
        tangentMode: 10
      - time: 0.6
        value: 0
        inSlope: 0
        outSlope: 0
        tangentMode: 10
      - time: 0.71666664
        value: 0
        inSlope: 0
        outSlope: 0
        tangentMode: 10
      - time: 0.8333333
        value: 0
        inSlope: 0
        outSlope: 0
        tangentMode: 10
      - time: 1
        value: 0
        inSlope: 0
        outSlope: 0
        tangentMode: 10
      m_PreInfinity: 2
      m_PostInfinity: 2
      m_RotationOrder: 4
    attribute: m_LocalPosition.z
    path: Model
    classID: 4
    script: {fileID: 0}
  - curve:
      serializedVersion: 2
      m_Curve:
      - time: 0
        value: 0.18
        inSlope: -0.036000013
        outSlope: -0.036000013
        tangentMode: 10
      - time: 1
        value: 0.144
        inSlope: -0.036000013
        outSlope: -0.036000013
        tangentMode: 10
      m_PreInfinity: 2
      m_PostInfinity: 2
      m_RotationOrder: 4
    attribute: m_LocalScale.x
    path: eyes
    classID: 4
    script: {fileID: 0}
  - curve:
      serializedVersion: 2
      m_Curve:
      - time: 0
        value: 0.18
        inSlope: -0.07000001
        outSlope: -0.07000001
        tangentMode: 10
      - time: 1
        value: 0.11
        inSlope: -0.07000001
        outSlope: -0.07000001
        tangentMode: 10
      m_PreInfinity: 2
      m_PostInfinity: 2
      m_RotationOrder: 4
    attribute: m_LocalScale.y
    path: eyes
    classID: 4
    script: {fileID: 0}
  - curve:
      serializedVersion: 2
      m_Curve:
      - time: 0
        value: 0.18
        inSlope: -0.036000013
        outSlope: -0.036000013
        tangentMode: 10
      - time: 1
        value: 0.144
        inSlope: -0.036000013
        outSlope: -0.036000013
        tangentMode: 10
      m_PreInfinity: 2
      m_PostInfinity: 2
      m_RotationOrder: 4
    attribute: m_LocalScale.z
    path: eyes
    classID: 4
    script: {fileID: 0}
  - curve:
      serializedVersion: 2
      m_Curve:
      - time: 0
        value: 1
        inSlope: -0.14999998
        outSlope: -0.14999998
        tangentMode: 10
      - time: 1
        value: 0.85
        inSlope: -0.14999998
        outSlope: -0.14999998
        tangentMode: 10
      m_PreInfinity: 2
      m_PostInfinity: 2
      m_RotationOrder: 4
    attribute: m_LocalScale.x
    path: Model/Bone001/Bone002/Bone003/Bone004/Bone005/Bone006
    classID: 4
    script: {fileID: 0}
  - curve:
      serializedVersion: 2
      m_Curve:
      - time: 0
        value: 1
        inSlope: -0.14999998
        outSlope: -0.14999998
        tangentMode: 10
      - time: 1
        value: 0.85
        inSlope: -0.14999998
        outSlope: -0.14999998
        tangentMode: 10
      m_PreInfinity: 2
      m_PostInfinity: 2
      m_RotationOrder: 4
    attribute: m_LocalScale.y
    path: Model/Bone001/Bone002/Bone003/Bone004/Bone005/Bone006
    classID: 4
    script: {fileID: 0}
  - curve:
      serializedVersion: 2
      m_Curve:
      - time: 0
        value: 1
        inSlope: -0.14999998
        outSlope: -0.14999998
        tangentMode: 10
      - time: 1
        value: 0.85
        inSlope: -0.14999998
        outSlope: -0.14999998
        tangentMode: 10
      m_PreInfinity: 2
      m_PostInfinity: 2
      m_RotationOrder: 4
    attribute: m_LocalScale.z
    path: Model/Bone001/Bone002/Bone003/Bone004/Bone005/Bone006
    classID: 4
    script: {fileID: 0}
  - curve:
      serializedVersion: 2
      m_Curve:
      - time: 0
        value: 1
        inSlope: 0
        outSlope: 0
        tangentMode: 10
      - time: 0.56666666
        value: 1
        inSlope: 0
        outSlope: 0
        tangentMode: 10
      m_PreInfinity: 2
      m_PostInfinity: 2
      m_RotationOrder: 4
    attribute: m_LocalScale.x
    path: eyes/left
    classID: 4
    script: {fileID: 0}
  - curve:
      serializedVersion: 2
      m_Curve:
      - time: 0
        value: 1
        inSlope: -1.2176471
        outSlope: -1.2176471
        tangentMode: 10
      - time: 0.56666666
        value: 0.31
        inSlope: -1.2176471
        outSlope: -1.2176471
        tangentMode: 10
      m_PreInfinity: 2
      m_PostInfinity: 2
      m_RotationOrder: 4
    attribute: m_LocalScale.y
    path: eyes/left
    classID: 4
    script: {fileID: 0}
  - curve:
      serializedVersion: 2
      m_Curve:
      - time: 0
        value: 1
        inSlope: 0
        outSlope: 0
        tangentMode: 10
      - time: 0.56666666
        value: 1
        inSlope: 0
        outSlope: 0
        tangentMode: 10
      m_PreInfinity: 2
      m_PostInfinity: 2
      m_RotationOrder: 4
    attribute: m_LocalScale.z
    path: eyes/left
    classID: 4
    script: {fileID: 0}
  - curve:
      serializedVersion: 2
      m_Curve:
      - time: 0
        value: 1
        inSlope: 0
        outSlope: 0
        tangentMode: 10
      - time: 0.23333333
        value: 1
        inSlope: 0
        outSlope: 0
        tangentMode: 10
      - time: 0.7
        value: 1
        inSlope: 0
        outSlope: 0
        tangentMode: 10
      m_PreInfinity: 2
      m_PostInfinity: 2
      m_RotationOrder: 4
    attribute: m_LocalScale.x
    path: eyes/right
    classID: 4
    script: {fileID: 0}
  - curve:
      serializedVersion: 2
      m_Curve:
      - time: 0
        value: 1
        inSlope: 0
        outSlope: 0
        tangentMode: 10
      - time: 0.23333333
        value: 1
        inSlope: -0.7285715
        outSlope: -0.7285715
        tangentMode: 10
      - time: 0.7
        value: 0.32
        inSlope: -1.457143
        outSlope: -1.457143
        tangentMode: 10
      m_PreInfinity: 2
      m_PostInfinity: 2
      m_RotationOrder: 4
    attribute: m_LocalScale.y
    path: eyes/right
    classID: 4
    script: {fileID: 0}
  - curve:
      serializedVersion: 2
      m_Curve:
      - time: 0
        value: 1
        inSlope: 0
        outSlope: 0
        tangentMode: 10
      - time: 0.23333333
        value: 1
        inSlope: 0
        outSlope: 0
        tangentMode: 10
      - time: 0.7
        value: 1
        inSlope: 0
        outSlope: 0
        tangentMode: 10
      m_PreInfinity: 2
      m_PostInfinity: 2
      m_RotationOrder: 4
    attribute: m_LocalScale.z
    path: eyes/right
    classID: 4
    script: {fileID: 0}
  m_EulerEditorCurves: []
  m_HasGenericRootTransform: 0
  m_HasMotionFloatCurves: 0
  m_GenerateMotionCurves: 0
  m_Events: []
