%YAML 1.1
%TAG !u! tag:unity3d.com,2011:
--- !u!74 &7400000
AnimationClip:
  m_ObjectHideFlags: 0
  m_PrefabParentObject: {fileID: 0}
  m_PrefabInternal: {fileID: 0}
  m_Name: FlyingUp
  serializedVersion: 6
  m_Legacy: 0
  m_Compressed: 0
  m_UseHighQualityCurve: 1
  m_RotationCurves: []
  m_CompressedRotationCurves: []
  m_EulerCurves:
  - curve:
      serializedVersion: 2
      m_Curve:
      - time: 0
        value: {x: 0, y: 0, z: 0}
        inSlope: {x: 0, y: 1080, z: 0}
        outSlope: {x: 0, y: 1080, z: 0}
        tangentMode: 0
      - time: 0.16666667
        value: {x: 0, y: 180, z: 0}
        inSlope: {x: 0, y: 573.9446, z: 0}
        outSlope: {x: 0, y: 573.9446, z: 0}
        tangentMode: 0
      - time: 2
        value: {x: 0, y: 720, z: 0}
        inSlope: {x: 0, y: 0, z: 0}
        outSlope: {x: 0, y: 0, z: 0}
        tangentMode: 0
      m_PreInfinity: 2
      m_PostInfinity: 2
      m_RotationOrder: 4
    path: Model
  m_PositionCurves:
  - curve:
      serializedVersion: 2
      m_Curve:
      - time: 0
        value: {x: 0, y: 0.067, z: 0.575}
        inSlope: {x: 0, y: 2.5979998, z: 0}
        outSlope: {x: 0, y: 2.5979998, z: 0}
        tangentMode: 0
      - time: 0.16666667
        value: {x: 0, y: 0.5, z: 0.575}
        inSlope: {x: 0, y: 2.5979998, z: 0}
        outSlope: {x: 0, y: 2.5979998, z: 0}
        tangentMode: 0
      m_PreInfinity: 2
      m_PostInfinity: 2
      m_RotationOrder: 4
    path: eyes
  - curve:
      serializedVersion: 2
      m_Curve:
      - time: 0
        value: {x: 1.2, y: 0, z: 0.03}
        inSlope: {x: 1.9799995, y: 1.38, z: 0}
        outSlope: {x: 1.9799995, y: 1.38, z: 0}
        tangentMode: 0
      - time: 0.16666667
        value: {x: 1.53, y: 0.23, z: 0.03}
        inSlope: {x: 1.47, y: -0.71999997, z: 0}
        outSlope: {x: 1.47, y: -0.71999997, z: 0}
        tangentMode: 0
      - time: 0.33333334
        value: {x: 1.69, y: -0.24, z: 0.03}
        inSlope: {x: -1.3199999, y: -2.91, z: 0}
        outSlope: {x: -1.3199999, y: -2.91, z: 0}
        tangentMode: 0
      - time: 0.4
        value: {x: 1.45, y: -0.44, z: 0.03}
        inSlope: {x: -3.7000003, y: -1.4000001, z: 0}
        outSlope: {x: -3.7000003, y: -1.4000001, z: 0}
        tangentMode: 0
      - time: 0.5
        value: {x: 1.07, y: -0.42, z: 0.03}
        inSlope: {x: -3.820001, y: 1.0600003, z: 0}
        outSlope: {x: -3.820001, y: 1.0600003, z: 0}
        tangentMode: 0
      - time: 0.5833333
        value: {x: 0.75, y: -0.26, z: 0.03}
        inSlope: {x: -2.9700003, y: 3.3099995, z: 0}
        outSlope: {x: -2.9700003, y: 3.3099995, z: 0}
        tangentMode: 0
      - time: 0.68333334
        value: {x: 0.54, y: 0.21, z: 0.03}
        inSlope: {x: -0.1499998, y: 4.1499987, z: 0}
        outSlope: {x: -0.1499998, y: 4.1499987, z: 0}
        tangentMode: 0
      - time: 0.78333336
        value: {x: 0.72, y: 0.57, z: 0.03}
        inSlope: {x: 3.3, y: 2.3624997, z: 0}
        outSlope: {x: 3.3, y: 2.3624997, z: 0}
        tangentMode: 0
      - time: 0.9166667
        value: {x: 1.36, y: 0.72, z: 0.03}
        inSlope: {x: 3.1000001, y: 0.12916675, z: 0}
        outSlope: {x: 3.1000001, y: 0.12916675, z: 0}
        tangentMode: 0
      - time: 1.0666667
        value: {x: 1.57, y: 0.59, z: 0.03}
        inSlope: {x: 1.1, y: -3.2000005, z: 0}
        outSlope: {x: 1.1, y: -3.2000005, z: 0}
        tangentMode: 0
      - time: 1.2166667
        value: {x: 1.69, y: -0.24, z: 0.03}
        inSlope: {x: -1.6999998, y: -1.7380958, z: 0}
        outSlope: {x: -1.6999998, y: -1.7380958, z: 0}
        tangentMode: 0
      - time: 1.3333334
        value: {x: 1.2, y: 0, z: 0.03}
        inSlope: {x: -4.2, y: 2.0571427, z: 0}
        outSlope: {x: -4.2, y: 2.0571427, z: 0}
        tangentMode: 0
      m_PreInfinity: 2
      m_PostInfinity: 2
      m_RotationOrder: 4
    path: eyes/left
  - curve:
      serializedVersion: 2
      m_Curve:
      - time: 0
        value: {x: -1.13, y: 0.08, z: 0.14}
        inSlope: {x: -3.3600004, y: 2.16, z: 0}
        outSlope: {x: -3.3600004, y: 2.16, z: 0}
        tangentMode: 0
      - time: 0.16666667
        value: {x: -1.69, y: 0.44, z: 0.14}
        inSlope: {x: -0.8699999, y: 1.7400001, z: 0}
        outSlope: {x: -0.8699999, y: 1.7400001, z: 0}
        tangentMode: 0
      - time: 0.33333334
        value: {x: -1.42, y: 0.66, z: 0.14}
        inSlope: {x: 4.485, y: -0.46500027, z: 0}
        outSlope: {x: 4.485, y: -0.46500027, z: 0}
        tangentMode: 0
      - time: 0.4
        value: {x: -0.93, y: 0.51, z: 0.14}
        inSlope: {x: 4.675, y: -3.2250004, z: 0}
        outSlope: {x: 4.675, y: -3.2250004, z: 0}
        tangentMode: 0
      - time: 0.5
        value: {x: -0.73, y: 0.09, z: 0.14}
        inSlope: {x: -0.98, y: -5.040001, z: 0}
        outSlope: {x: -0.98, y: -5.040001, z: 0}
        tangentMode: 0
      - time: 0.5833333
        value: {x: -1.06, y: -0.4, z: 0.14}
        inSlope: {x: -4.5299997, y: -3.1900005, z: 0}
        outSlope: {x: -4.5299997, y: -3.1900005, z: 0}
        tangentMode: 0
      - time: 0.68333334
        value: {x: -1.57, y: -0.45, z: 0.14}
        inSlope: {x: -3.6499991, y: 1.2999997, z: 0}
        outSlope: {x: -3.6499991, y: 1.2999997, z: 0}
        tangentMode: 0
      - time: 0.78333336
        value: {x: -1.79, y: -0.14, z: 0.14}
        inSlope: {x: -1.3249996, y: 3.7999997, z: 0}
        outSlope: {x: -1.3249996, y: 3.7999997, z: 0}
        tangentMode: 0
      - time: 0.9166667
        value: {x: -1.85, y: 0.46, z: 0.14}
        inSlope: {x: 1.2083329, y: 2.9166667, z: 0}
        outSlope: {x: 1.2083329, y: 2.9166667, z: 0}
        tangentMode: 0
      - time: 1.0666667
        value: {x: -1.42, y: 0.66, z: 0.14}
        inSlope: {x: 1.9770832, y: -0.42083353, z: 0}
        outSlope: {x: 1.9770832, y: -0.42083353, z: 0}
        tangentMode: 0
      - time: 1.3333334
        value: {x: -1.13, y: 0.08, z: 0.14}
        inSlope: {x: 1.0875, y: -2.1750002, z: 0}
        outSlope: {x: 1.0875, y: -2.1750002, z: 0}
        tangentMode: 0
      m_PreInfinity: 2
      m_PostInfinity: 2
      m_RotationOrder: 4
    path: eyes/right
  m_ScaleCurves:
  - curve:
      serializedVersion: 2
      m_Curve:
      - time: 0
        value: {x: 1, y: 1, z: 1}
        inSlope: {x: -2.2831793, y: -2.2831793, z: -2.2831793}
        outSlope: {x: -2.2831793, y: -2.2831793, z: -2.2831793}
        tangentMode: 0
      - time: 0.16666667
        value: {x: 0.6194701, y: 0.6194701, z: 0.6194701}
        inSlope: {x: -0.97850543, y: -0.97850543, z: -0.97850543}
        outSlope: {x: -0.97850543, y: -0.97850543, z: -0.97850543}
        tangentMode: 0
      - time: 1.3333334
        value: {x: 1, y: 1, z: 1}
        inSlope: {x: 0.32616845, y: 0.32616845, z: 0.32616845}
        outSlope: {x: 0.32616845, y: 0.32616845, z: 0.32616845}
        tangentMode: 0
      m_PreInfinity: 2
      m_PostInfinity: 2
      m_RotationOrder: 4
    path: eyes/left
  - curve:
      serializedVersion: 2
      m_Curve:
      - time: 0
        value: {x: 1, y: 1, z: 1}
        inSlope: {x: -2.0092893, y: -2.0092893, z: -2.0092893}
        outSlope: {x: -2.0092893, y: -2.0092893, z: -2.0092893}
        tangentMode: 0
      - time: 0.16666667
        value: {x: 0.66511846, y: 0.66511846, z: 0.66511846}
        inSlope: {x: -0.861124, y: -0.861124, z: -0.861124}
        outSlope: {x: -0.861124, y: -0.861124, z: -0.861124}
        tangentMode: 0
      - time: 1.3333334
        value: {x: 1, y: 1, z: 1}
        inSlope: {x: 0.2870413, y: 0.2870413, z: 0.2870413}
        outSlope: {x: 0.2870413, y: 0.2870413, z: 0.2870413}
        tangentMode: 0
      m_PreInfinity: 2
      m_PostInfinity: 2
      m_RotationOrder: 4
    path: eyes/right
  m_FloatCurves: []
  m_PPtrCurves: []
  m_SampleRate: 60
  m_WrapMode: 0
  m_Bounds:
    m_Center: {x: 0, y: 0, z: 0}
    m_Extent: {x: 0, y: 0, z: 0}
  m_ClipBindingConstant:
    genericBindings:
    - path: 2803512470
      attribute: 1
      script: {fileID: 0}
      classID: 4
      customType: 0
      isPPtrCurve: 0
    - path: 258524786
      attribute: 1
      script: {fileID: 0}
      classID: 4
      customType: 0
      isPPtrCurve: 0
    - path: 1239253839
      attribute: 1
      script: {fileID: 0}
      classID: 4
      customType: 0
      isPPtrCurve: 0
    - path: 374627805
      attribute: 4
      script: {fileID: 0}
      classID: 4
      customType: 14
      isPPtrCurve: 0
    - path: 258524786
      attribute: 3
      script: {fileID: 0}
      classID: 4
      customType: 0
      isPPtrCurve: 0
    - path: 1239253839
      attribute: 3
      script: {fileID: 0}
      classID: 4
      customType: 0
      isPPtrCurve: 0
    pptrCurveMapping: []
  m_AnimationClipSettings:
    serializedVersion: 2
    m_AdditiveReferencePoseClip: {fileID: 0}
    m_AdditiveReferencePoseTime: 0
    m_StartTime: 0
    m_StopTime: 2
    m_OrientationOffsetY: 0
    m_Level: 0
    m_CycleOffset: 0
    m_HasAdditiveReferencePose: 0
    m_LoopTime: 0
    m_LoopBlend: 0
    m_LoopBlendOrientation: 0
    m_LoopBlendPositionY: 0
    m_LoopBlendPositionXZ: 0
    m_KeepOriginalOrientation: 0
    m_KeepOriginalPositionY: 1
    m_KeepOriginalPositionXZ: 0
    m_HeightFromFeet: 0
    m_Mirror: 0
  m_EditorCurves:
  - curve:
      serializedVersion: 2
      m_Curve:
      - time: 0
        value: 0
        inSlope: 0
        outSlope: 0
        tangentMode: 10
      - time: 0.16666667
        value: 0
        inSlope: 0
        outSlope: 0
        tangentMode: 10
      - time: 2
        value: 0
        inSlope: 0
        outSlope: 0
        tangentMode: 10
      m_PreInfinity: 2
      m_PostInfinity: 2
      m_RotationOrder: 4
    attribute: localEulerAnglesRaw.x
    path: Model
    classID: 4
    script: {fileID: 0}
  - curve:
      serializedVersion: 2
      m_Curve:
      - time: 0
        value: 0
        inSlope: 1080
        outSlope: 1080
        tangentMode: 10
      - time: 0.16666667
        value: 180
        inSlope: 573.9446
        outSlope: 573.9446
        tangentMode: 0
      - time: 2
        value: 720
        inSlope: 0
        outSlope: 0
        tangentMode: 0
      m_PreInfinity: 2
      m_PostInfinity: 2
      m_RotationOrder: 4
    attribute: localEulerAnglesRaw.y
    path: Model
    classID: 4
    script: {fileID: 0}
  - curve:
      serializedVersion: 2
      m_Curve:
      - time: 0
        value: 0
        inSlope: 0
        outSlope: 0
        tangentMode: 10
      - time: 0.16666667
        value: 0
        inSlope: 0
        outSlope: 0
        tangentMode: 10
      - time: 2
        value: 0
        inSlope: 0
        outSlope: 0
        tangentMode: 10
      m_PreInfinity: 2
      m_PostInfinity: 2
      m_RotationOrder: 4
    attribute: localEulerAnglesRaw.z
    path: Model
    classID: 4
    script: {fileID: 0}
  - curve:
      serializedVersion: 2
      m_Curve:
      - time: 0
        value: 0
        inSlope: 0
        outSlope: 0
        tangentMode: 10
      - time: 0.16666667
        value: 0
        inSlope: 0
        outSlope: 0
        tangentMode: 10
      m_PreInfinity: 2
      m_PostInfinity: 2
      m_RotationOrder: 4
    attribute: m_LocalPosition.x
    path: eyes
    classID: 4
    script: {fileID: 0}
  - curve:
      serializedVersion: 2
      m_Curve:
      - time: 0
        value: 0.067
        inSlope: 2.5979998
        outSlope: 2.5979998
        tangentMode: 10
      - time: 0.16666667
        value: 0.5
        inSlope: 2.5979998
        outSlope: 2.5979998
        tangentMode: 10
      m_PreInfinity: 2
      m_PostInfinity: 2
      m_RotationOrder: 4
    attribute: m_LocalPosition.y
    path: eyes
    classID: 4
    script: {fileID: 0}
  - curve:
      serializedVersion: 2
      m_Curve:
      - time: 0
        value: 0.575
        inSlope: 0
        outSlope: 0
        tangentMode: 10
      - time: 0.16666667
        value: 0.575
        inSlope: 0
        outSlope: 0
        tangentMode: 10
      m_PreInfinity: 2
      m_PostInfinity: 2
      m_RotationOrder: 4
    attribute: m_LocalPosition.z
    path: eyes
    classID: 4
    script: {fileID: 0}
  - curve:
      serializedVersion: 2
      m_Curve:
      - time: 0
        value: 1.2
        inSlope: 1.9799995
        outSlope: 1.9799995
        tangentMode: 10
      - time: 0.16666667
        value: 1.53
        inSlope: 1.47
        outSlope: 1.47
        tangentMode: 10
      - time: 0.33333334
        value: 1.69
        inSlope: -1.3199999
        outSlope: -1.3199999
        tangentMode: 10
      - time: 0.4
        value: 1.45
        inSlope: -3.7000003
        outSlope: -3.7000003
        tangentMode: 10
      - time: 0.5
        value: 1.07
        inSlope: -3.820001
        outSlope: -3.820001
        tangentMode: 10
      - time: 0.5833333
        value: 0.75
        inSlope: -2.9700003
        outSlope: -2.9700003
        tangentMode: 10
      - time: 0.68333334
        value: 0.54
        inSlope: -0.1499998
        outSlope: -0.1499998
        tangentMode: 10
      - time: 0.78333336
        value: 0.72
        inSlope: 3.3
        outSlope: 3.3
        tangentMode: 10
      - time: 0.9166667
        value: 1.36
        inSlope: 3.1000001
        outSlope: 3.1000001
        tangentMode: 10
      - time: 1.0666667
        value: 1.57
        inSlope: 1.1
        outSlope: 1.1
        tangentMode: 10
      - time: 1.2166667
        value: 1.69
        inSlope: -1.6999998
        outSlope: -1.6999998
        tangentMode: 10
      - time: 1.3333334
        value: 1.2
        inSlope: -4.2
        outSlope: -4.2
        tangentMode: 10
      m_PreInfinity: 2
      m_PostInfinity: 2
      m_RotationOrder: 4
    attribute: m_LocalPosition.x
    path: eyes/left
    classID: 4
    script: {fileID: 0}
  - curve:
      serializedVersion: 2
      m_Curve:
      - time: 0
        value: 0
        inSlope: 1.38
        outSlope: 1.38
        tangentMode: 10
      - time: 0.16666667
        value: 0.23
        inSlope: -0.71999997
        outSlope: -0.71999997
        tangentMode: 10
      - time: 0.33333334
        value: -0.24
        inSlope: -2.91
        outSlope: -2.91
        tangentMode: 10
      - time: 0.4
        value: -0.44
        inSlope: -1.4000001
        outSlope: -1.4000001
        tangentMode: 10
      - time: 0.5
        value: -0.42
        inSlope: 1.0600003
        outSlope: 1.0600003
        tangentMode: 10
      - time: 0.5833333
        value: -0.26
        inSlope: 3.3099995
        outSlope: 3.3099995
        tangentMode: 10
      - time: 0.68333334
        value: 0.21
        inSlope: 4.1499987
        outSlope: 4.1499987
        tangentMode: 10
      - time: 0.78333336
        value: 0.57
        inSlope: 2.3624997
        outSlope: 2.3624997
        tangentMode: 10
      - time: 0.9166667
        value: 0.72
        inSlope: 0.12916675
        outSlope: 0.12916675
        tangentMode: 10
      - time: 1.0666667
        value: 0.59
        inSlope: -3.2000005
        outSlope: -3.2000005
        tangentMode: 10
      - time: 1.2166667
        value: -0.24
        inSlope: -1.7380958
        outSlope: -1.7380958
        tangentMode: 10
      - time: 1.3333334
        value: 0
        inSlope: 2.0571427
        outSlope: 2.0571427
        tangentMode: 10
      m_PreInfinity: 2
      m_PostInfinity: 2
      m_RotationOrder: 4
    attribute: m_LocalPosition.y
    path: eyes/left
    classID: 4
    script: {fileID: 0}
  - curve:
      serializedVersion: 2
      m_Curve:
      - time: 0
        value: 0.03
        inSlope: 0
        outSlope: 0
        tangentMode: 10
      - time: 0.16666667
        value: 0.03
        inSlope: 0
        outSlope: 0
        tangentMode: 10
      - time: 0.33333334
        value: 0.03
        inSlope: 0
        outSlope: 0
        tangentMode: 10
      - time: 0.4
        value: 0.03
        inSlope: 0
        outSlope: 0
        tangentMode: 10
      - time: 0.5
        value: 0.03
        inSlope: 0
        outSlope: 0
        tangentMode: 10
      - time: 0.5833333
        value: 0.03
        inSlope: 0
        outSlope: 0
        tangentMode: 10
      - time: 0.68333334
        value: 0.03
        inSlope: 0
        outSlope: 0
        tangentMode: 10
      - time: 0.78333336
        value: 0.03
        inSlope: 0
        outSlope: 0
        tangentMode: 10
      - time: 0.9166667
        value: 0.03
        inSlope: 0
        outSlope: 0
        tangentMode: 10
      - time: 1.0666667
        value: 0.03
        inSlope: 0
        outSlope: 0
        tangentMode: 10
      - time: 1.2166667
        value: 0.03
        inSlope: 0
        outSlope: 0
        tangentMode: 10
      - time: 1.3333334
        value: 0.03
        inSlope: 0
        outSlope: 0
        tangentMode: 10
      m_PreInfinity: 2
      m_PostInfinity: 2
      m_RotationOrder: 4
    attribute: m_LocalPosition.z
    path: eyes/left
    classID: 4
    script: {fileID: 0}
  - curve:
      serializedVersion: 2
      m_Curve:
      - time: 0
        value: 1
        inSlope: -2.2831793
        outSlope: -2.2831793
        tangentMode: 10
      - time: 0.16666667
        value: 0.6194701
        inSlope: -0.97850543
        outSlope: -0.97850543
        tangentMode: 10
      - time: 1.3333334
        value: 1
        inSlope: 0.32616845
        outSlope: 0.32616845
        tangentMode: 10
      m_PreInfinity: 2
      m_PostInfinity: 2
      m_RotationOrder: 4
    attribute: m_LocalScale.x
    path: eyes/left
    classID: 4
    script: {fileID: 0}
  - curve:
      serializedVersion: 2
      m_Curve:
      - time: 0
        value: 1
        inSlope: -2.2831793
        outSlope: -2.2831793
        tangentMode: 10
      - time: 0.16666667
        value: 0.6194701
        inSlope: -0.97850543
        outSlope: -0.97850543
        tangentMode: 10
      - time: 1.3333334
        value: 1
        inSlope: 0.32616845
        outSlope: 0.32616845
        tangentMode: 10
      m_PreInfinity: 2
      m_PostInfinity: 2
      m_RotationOrder: 4
    attribute: m_LocalScale.y
    path: eyes/left
    classID: 4
    script: {fileID: 0}
  - curve:
      serializedVersion: 2
      m_Curve:
      - time: 0
        value: 1
        inSlope: -2.2831793
        outSlope: -2.2831793
        tangentMode: 10
      - time: 0.16666667
        value: 0.6194701
        inSlope: -0.97850543
        outSlope: -0.97850543
        tangentMode: 10
      - time: 1.3333334
        value: 1
        inSlope: 0.32616845
        outSlope: 0.32616845
        tangentMode: 10
      m_PreInfinity: 2
      m_PostInfinity: 2
      m_RotationOrder: 4
    attribute: m_LocalScale.z
    path: eyes/left
    classID: 4
    script: {fileID: 0}
  - curve:
      serializedVersion: 2
      m_Curve:
      - time: 0
        value: -1.13
        inSlope: -3.3600004
        outSlope: -3.3600004
        tangentMode: 10
      - time: 0.16666667
        value: -1.69
        inSlope: -0.8699999
        outSlope: -0.8699999
        tangentMode: 10
      - time: 0.33333334
        value: -1.42
        inSlope: 4.485
        outSlope: 4.485
        tangentMode: 10
      - time: 0.4
        value: -0.93
        inSlope: 4.675
        outSlope: 4.675
        tangentMode: 10
      - time: 0.5
        value: -0.73
        inSlope: -0.98
        outSlope: -0.98
        tangentMode: 10
      - time: 0.5833333
        value: -1.06
        inSlope: -4.5299997
        outSlope: -4.5299997
        tangentMode: 10
      - time: 0.68333334
        value: -1.57
        inSlope: -3.6499991
        outSlope: -3.6499991
        tangentMode: 10
      - time: 0.78333336
        value: -1.79
        inSlope: -1.3249996
        outSlope: -1.3249996
        tangentMode: 10
      - time: 0.9166667
        value: -1.85
        inSlope: 1.2083329
        outSlope: 1.2083329
        tangentMode: 10
      - time: 1.0666667
        value: -1.42
        inSlope: 1.9770832
        outSlope: 1.9770832
        tangentMode: 10
      - time: 1.3333334
        value: -1.13
        inSlope: 1.0875
        outSlope: 1.0875
        tangentMode: 10
      m_PreInfinity: 2
      m_PostInfinity: 2
      m_RotationOrder: 4
    attribute: m_LocalPosition.x
    path: eyes/right
    classID: 4
    script: {fileID: 0}
  - curve:
      serializedVersion: 2
      m_Curve:
      - time: 0
        value: 0.08
        inSlope: 2.16
        outSlope: 2.16
        tangentMode: 10
      - time: 0.16666667
        value: 0.44
        inSlope: 1.7400001
        outSlope: 1.7400001
        tangentMode: 10
      - time: 0.33333334
        value: 0.66
        inSlope: -0.46500027
        outSlope: -0.46500027
        tangentMode: 10
      - time: 0.4
        value: 0.51
        inSlope: -3.2250004
        outSlope: -3.2250004
        tangentMode: 10
      - time: 0.5
        value: 0.09
        inSlope: -5.040001
        outSlope: -5.040001
        tangentMode: 10
      - time: 0.5833333
        value: -0.4
        inSlope: -3.1900005
        outSlope: -3.1900005
        tangentMode: 10
      - time: 0.68333334
        value: -0.45
        inSlope: 1.2999997
        outSlope: 1.2999997
        tangentMode: 10
      - time: 0.78333336
        value: -0.14
        inSlope: 3.7999997
        outSlope: 3.7999997
        tangentMode: 10
      - time: 0.9166667
        value: 0.46
        inSlope: 2.9166667
        outSlope: 2.9166667
        tangentMode: 10
      - time: 1.0666667
        value: 0.66
        inSlope: -0.42083353
        outSlope: -0.42083353
        tangentMode: 10
      - time: 1.3333334
        value: 0.08
        inSlope: -2.1750002
        outSlope: -2.1750002
        tangentMode: 10
      m_PreInfinity: 2
      m_PostInfinity: 2
      m_RotationOrder: 4
    attribute: m_LocalPosition.y
    path: eyes/right
    classID: 4
    script: {fileID: 0}
  - curve:
      serializedVersion: 2
      m_Curve:
      - time: 0
        value: 0.14
        inSlope: 0
        outSlope: 0
        tangentMode: 10
      - time: 0.16666667
        value: 0.14
        inSlope: 0
        outSlope: 0
        tangentMode: 10
      - time: 0.33333334
        value: 0.14
        inSlope: 0
        outSlope: 0
        tangentMode: 10
      - time: 0.4
        value: 0.14
        inSlope: 0
        outSlope: 0
        tangentMode: 10
      - time: 0.5
        value: 0.14
        inSlope: 0
        outSlope: 0
        tangentMode: 10
      - time: 0.5833333
        value: 0.14
        inSlope: 0
        outSlope: 0
        tangentMode: 10
      - time: 0.68333334
        value: 0.14
        inSlope: 0
        outSlope: 0
        tangentMode: 10
      - time: 0.78333336
        value: 0.14
        inSlope: 0
        outSlope: 0
        tangentMode: 10
      - time: 0.9166667
        value: 0.14
        inSlope: 0
        outSlope: 0
        tangentMode: 10
      - time: 1.0666667
        value: 0.14
        inSlope: 0
        outSlope: 0
        tangentMode: 10
      - time: 1.3333334
        value: 0.14
        inSlope: 0
        outSlope: 0
        tangentMode: 10
      m_PreInfinity: 2
      m_PostInfinity: 2
      m_RotationOrder: 4
    attribute: m_LocalPosition.z
    path: eyes/right
    classID: 4
    script: {fileID: 0}
  - curve:
      serializedVersion: 2
      m_Curve:
      - time: 0
        value: 1
        inSlope: -2.0092893
        outSlope: -2.0092893
        tangentMode: 10
      - time: 0.16666667
        value: 0.66511846
        inSlope: -0.861124
        outSlope: -0.861124
        tangentMode: 10
      - time: 1.3333334
        value: 1
        inSlope: 0.2870413
        outSlope: 0.2870413
        tangentMode: 10
      m_PreInfinity: 2
      m_PostInfinity: 2
      m_RotationOrder: 4
    attribute: m_LocalScale.x
    path: eyes/right
    classID: 4
    script: {fileID: 0}
  - curve:
      serializedVersion: 2
      m_Curve:
      - time: 0
        value: 1
        inSlope: -2.0092893
        outSlope: -2.0092893
        tangentMode: 10
      - time: 0.16666667
        value: 0.66511846
        inSlope: -0.861124
        outSlope: -0.861124
        tangentMode: 10
      - time: 1.3333334
        value: 1
        inSlope: 0.2870413
        outSlope: 0.2870413
        tangentMode: 10
      m_PreInfinity: 2
      m_PostInfinity: 2
      m_RotationOrder: 4
    attribute: m_LocalScale.y
    path: eyes/right
    classID: 4
    script: {fileID: 0}
  - curve:
      serializedVersion: 2
      m_Curve:
      - time: 0
        value: 1
        inSlope: -2.0092893
        outSlope: -2.0092893
        tangentMode: 10
      - time: 0.16666667
        value: 0.66511846
        inSlope: -0.861124
        outSlope: -0.861124
        tangentMode: 10
      - time: 1.3333334
        value: 1
        inSlope: 0.2870413
        outSlope: 0.2870413
        tangentMode: 10
      m_PreInfinity: 2
      m_PostInfinity: 2
      m_RotationOrder: 4
    attribute: m_LocalScale.z
    path: eyes/right
    classID: 4
    script: {fileID: 0}
  m_EulerEditorCurves:
  - curve:
      serializedVersion: 2
      m_Curve: []
      m_PreInfinity: 2
      m_PostInfinity: 2
      m_RotationOrder: 4
    attribute: m_LocalEulerAngles.x
    path: Model
    classID: 4
    script: {fileID: 0}
  - curve:
      serializedVersion: 2
      m_Curve: []
      m_PreInfinity: 2
      m_PostInfinity: 2
      m_RotationOrder: 4
    attribute: m_LocalEulerAngles.y
    path: Model
    classID: 4
    script: {fileID: 0}
  - curve:
      serializedVersion: 2
      m_Curve: []
      m_PreInfinity: 2
      m_PostInfinity: 2
      m_RotationOrder: 4
    attribute: m_LocalEulerAngles.z
    path: Model
    classID: 4
    script: {fileID: 0}
  m_HasGenericRootTransform: 0
  m_HasMotionFloatCurves: 0
  m_GenerateMotionCurves: 0
  m_Events: []
