%YAML 1.1
%TAG !u! tag:unity3d.com,2011:
--- !u!74 &7400000
AnimationClip:
  m_ObjectHideFlags: 0
  m_PrefabParentObject: {fileID: 0}
  m_PrefabInternal: {fileID: 0}
  m_Name: rotate_horrible
  serializedVersion: 6
  m_Legacy: 0
  m_Compressed: 0
  m_UseHighQualityCurve: 1
  m_RotationCurves: []
  m_CompressedRotationCurves: []
  m_EulerCurves:
  - curve:
      serializedVersion: 2
      m_Curve:
      - time: 0
        value: {x: 0, y: 0, z: 0}
        inSlope: {x: 0, y: 132.76874, z: 0}
        outSlope: {x: 0, y: 132.76874, z: 0}
        tangentMode: 0
      - time: 0.53333336
        value: {x: 0, y: 70.81, z: 0}
        inSlope: {x: -47.20911, y: -178.06387, z: 0}
        outSlope: {x: -47.20911, y: -178.06387, z: 0}
        tangentMode: 0
      - time: 0.71666664
        value: {x: -17.310001, y: -18.821001, z: 0}
        inSlope: {x: 95.9996, y: -212.26575, z: 0}
        outSlope: {x: 95.9996, y: -212.26575, z: 0}
        tangentMode: 0
      - time: 0.85
        value: {x: 20.879002, y: -10.239, z: 0}
        inSlope: {x: 73.61203, y: 66.3125, z: 0}
        outSlope: {x: 73.61203, y: 66.3125, z: 0}
        tangentMode: 0
      - time: 1
        value: {x: 0, y: 0, z: 0}
        inSlope: {x: -139.19336, y: 68.26001, z: 0}
        outSlope: {x: -139.19336, y: 68.26001, z: 0}
        tangentMode: 0
      m_PreInfinity: 2
      m_PostInfinity: 2
      m_RotationOrder: 4
    path: eyes
  - curve:
      serializedVersion: 2
      m_Curve:
      - time: 0
        value: {x: 0, y: 89.701004, z: 179.99998}
        inSlope: {x: 0, y: 0, z: 0}
        outSlope: {x: 0, y: 0, z: 0}
        tangentMode: 0
      - time: 1
        value: {x: 0, y: 89.701004, z: 179.99998}
        inSlope: {x: 0, y: 0, z: 0}
        outSlope: {x: 0, y: 0, z: 0}
        tangentMode: 0
      m_PreInfinity: 2
      m_PostInfinity: 2
      m_RotationOrder: 4
    path: Armature_001/Bone
  - curve:
      serializedVersion: 2
      m_Curve:
      - time: 0
        value: {x: 0, y: 0, z: 0}
        inSlope: {x: 0, y: 0, z: -53.364708}
        outSlope: {x: 0, y: 0, z: -53.364708}
        tangentMode: 0
      - time: 0.28333333
        value: {x: 0, y: 0, z: -15.120001}
        inSlope: {x: 90.878, y: 51.279995, z: 20.489647}
        outSlope: {x: 90.878, y: 51.279995, z: 20.489647}
        tangentMode: 0
      - time: 0.53333336
        value: {x: 45.439003, y: 25.640001, z: 8.466001}
        inSlope: {x: 69.77981, y: -21.418217, z: 83.87837}
        outSlope: {x: 69.77981, y: -21.418217, z: 83.87837}
        tangentMode: 0
      - time: 0.71666664
        value: {x: 37.703003, y: -1.016, z: 21.925001}
        inSlope: {x: -72.80692, y: -123.0757, z: -113.811066}
        outSlope: {x: -72.80692, y: -123.0757, z: -113.811066}
        tangentMode: 0
      - time: 0.85
        value: {x: 23.914001, y: -14.450001, z: -18.213001}
        inSlope: {x: -131.42209, y: -2.2108078, z: -89.80743}
        outSlope: {x: -131.42209, y: -2.2108078, z: -89.80743}
        tangentMode: 0
      - time: 1
        value: {x: 0, y: 0, z: 0}
        inSlope: {x: -159.4267, y: 96.33335, z: 121.42003}
        outSlope: {x: -159.4267, y: 96.33335, z: 121.42003}
        tangentMode: 0
      m_PreInfinity: 2
      m_PostInfinity: 2
      m_RotationOrder: 4
    path: Armature_001/Bone/Bone_004
  m_PositionCurves:
  - curve:
      serializedVersion: 2
      m_Curve:
      - time: 0
        value: {x: 0, y: 1.57, z: 0.72}
        inSlope: {x: 0, y: 0, z: 1.3058823}
        outSlope: {x: 0, y: 0, z: 1.3058823}
        tangentMode: 0
      - time: 0.28333333
        value: {x: 0, y: 1.57, z: 1.09}
        inSlope: {x: -0.71999997, y: 0, z: 0.052941084}
        outSlope: {x: -0.71999997, y: 0, z: 0.052941084}
        tangentMode: 0
      - time: 0.53333336
        value: {x: -0.36, y: 1.57, z: 0.78999996}
        inSlope: {x: -0.038181603, y: -0.46363673, z: -2.1818187}
        outSlope: {x: -0.038181603, y: -0.46363673, z: -2.1818187}
        tangentMode: 0
      - time: 0.71666664
        value: {x: -0.11, y: 1.4, z: 0.21}
        inSlope: {x: 0.45681846, y: -0.20113662, z: 1.4931803}
        outSlope: {x: 0.45681846, y: -0.20113662, z: 1.4931803}
        tangentMode: 0
      - time: 0.85
        value: {x: -0.17, y: 1.47, z: 1.03}
        inSlope: {x: 0.34166688, y: 0.59583354, z: 2.0416656}
        outSlope: {x: 0.34166688, y: 0.59583354, z: 2.0416656}
        tangentMode: 0
      - time: 1
        value: {x: 0, y: 1.57, z: 0.72}
        inSlope: {x: 1.1333336, y: 0.6666669, z: -2.0666666}
        outSlope: {x: 1.1333336, y: 0.6666669, z: -2.0666666}
        tangentMode: 0
      m_PreInfinity: 2
      m_PostInfinity: 2
      m_RotationOrder: 4
    path: eyes
  - curve:
      serializedVersion: 2
      m_Curve:
      - time: 0
        value: {x: -0.18816938, y: 0.000000019804993, z: -0.000000004083464}
        inSlope: {x: 0.000000052592334, y: -0.000000048537878, z: -0.00000019595711}
        outSlope: {x: 0.000000052592334, y: -0.000000048537878, z: -0.00000019595711}
        tangentMode: 0
      - time: 0.28333333
        value: {x: -0.18816936, y: 0.000000006052595, z: -0.000000059604645}
        inSlope: {x: 0.000000026296167, y: -0.000000024268939, z: -0.00000009797856}
        outSlope: {x: 0.000000026296167, y: -0.000000024268939, z: -0.00000009797856}
        tangentMode: 0
      - time: 0.53333336
        value: {x: -0.18816936, y: 0.000000006052595, z: -0.000000059604645}
        inSlope: {x: 0, y: 0, z: 0}
        outSlope: {x: 0, y: 0, z: 0}
        tangentMode: 0
      - time: 0.71666664
        value: {x: -0.18816936, y: 0.000000006052595, z: -0.000000059604645}
        inSlope: {x: 0, y: 0, z: 0}
        outSlope: {x: 0, y: 0, z: 0}
        tangentMode: 0
      - time: 0.85
        value: {x: -0.18816936, y: 0.000000006052595, z: -0.000000059604645}
        inSlope: {x: -0.000000049670547, y: 0.000000045841336, z: 0.00000018507063}
        outSlope: {x: -0.000000049670547, y: 0.000000045841336, z: 0.00000018507063}
        tangentMode: 0
      - time: 1
        value: {x: -0.18816938, y: 0.000000019804993, z: -0.000000004083464}
        inSlope: {x: -0.000000099341094, y: 0.00000009168267, z: 0.00000037014127}
        outSlope: {x: -0.000000099341094, y: 0.00000009168267, z: 0.00000037014127}
        tangentMode: 0
      m_PreInfinity: 2
      m_PostInfinity: 2
      m_RotationOrder: 4
    path: Armature_001/Bone/Bone_004
  m_ScaleCurves: []
  m_FloatCurves: []
  m_PPtrCurves: []
  m_SampleRate: 60
  m_WrapMode: 0
  m_Bounds:
    m_Center: {x: 0, y: 0, z: 0}
    m_Extent: {x: 0, y: 0, z: 0}
  m_ClipBindingConstant:
    genericBindings:
    - path: 2803512470
      attribute: 1
      script: {fileID: 0}
      classID: 4
      customType: 0
      isPPtrCurve: 0
    - path: 2803512470
      attribute: 4
      script: {fileID: 0}
      classID: 4
      customType: 14
      isPPtrCurve: 0
    - path: 3841677145
      attribute: 4
      script: {fileID: 0}
      classID: 4
      customType: 14
      isPPtrCurve: 0
    - path: 3841677145
      attribute: 1
      script: {fileID: 0}
      classID: 4
      customType: 0
      isPPtrCurve: 0
    - path: 198020912
      attribute: 4
      script: {fileID: 0}
      classID: 4
      customType: 14
      isPPtrCurve: 0
    pptrCurveMapping: []
  m_AnimationClipSettings:
    serializedVersion: 2
    m_AdditiveReferencePoseClip: {fileID: 0}
    m_AdditiveReferencePoseTime: 0
    m_StartTime: 0
    m_StopTime: 1
    m_OrientationOffsetY: 0
    m_Level: 0
    m_CycleOffset: 0
    m_HasAdditiveReferencePose: 0
    m_LoopTime: 1
    m_LoopBlend: 0
    m_LoopBlendOrientation: 0
    m_LoopBlendPositionY: 0
    m_LoopBlendPositionXZ: 0
    m_KeepOriginalOrientation: 0
    m_KeepOriginalPositionY: 1
    m_KeepOriginalPositionXZ: 0
    m_HeightFromFeet: 0
    m_Mirror: 0
  m_EditorCurves:
  - curve:
      serializedVersion: 2
      m_Curve:
      - time: 0
        value: 0
        inSlope: 0
        outSlope: 0
        tangentMode: 10
      - time: 0.28333333
        value: 0
        inSlope: -0.71999997
        outSlope: -0.71999997
        tangentMode: 10
      - time: 0.53333336
        value: -0.36
        inSlope: -0.038181603
        outSlope: -0.038181603
        tangentMode: 10
      - time: 0.71666664
        value: -0.11
        inSlope: 0.45681846
        outSlope: 0.45681846
        tangentMode: 10
      - time: 0.85
        value: -0.17
        inSlope: 0.34166688
        outSlope: 0.34166688
        tangentMode: 10
      - time: 1
        value: 0
        inSlope: 1.1333336
        outSlope: 1.1333336
        tangentMode: 10
      m_PreInfinity: 2
      m_PostInfinity: 2
      m_RotationOrder: 4
    attribute: m_LocalPosition.x
    path: eyes
    classID: 4
    script: {fileID: 0}
  - curve:
      serializedVersion: 2
      m_Curve:
      - time: 0
        value: 1.57
        inSlope: 0
        outSlope: 0
        tangentMode: 10
      - time: 0.28333333
        value: 1.57
        inSlope: 0
        outSlope: 0
        tangentMode: 10
      - time: 0.53333336
        value: 1.57
        inSlope: -0.46363673
        outSlope: -0.46363673
        tangentMode: 10
      - time: 0.71666664
        value: 1.4
        inSlope: -0.20113662
        outSlope: -0.20113662
        tangentMode: 10
      - time: 0.85
        value: 1.47
        inSlope: 0.59583354
        outSlope: 0.59583354
        tangentMode: 10
      - time: 1
        value: 1.57
        inSlope: 0.6666669
        outSlope: 0.6666669
        tangentMode: 10
      m_PreInfinity: 2
      m_PostInfinity: 2
      m_RotationOrder: 4
    attribute: m_LocalPosition.y
    path: eyes
    classID: 4
    script: {fileID: 0}
  - curve:
      serializedVersion: 2
      m_Curve:
      - time: 0
        value: 0.72
        inSlope: 1.3058823
        outSlope: 1.3058823
        tangentMode: 10
      - time: 0.28333333
        value: 1.09
        inSlope: 0.052941084
        outSlope: 0.052941084
        tangentMode: 10
      - time: 0.53333336
        value: 0.78999996
        inSlope: -2.1818187
        outSlope: -2.1818187
        tangentMode: 10
      - time: 0.71666664
        value: 0.21
        inSlope: 1.4931803
        outSlope: 1.4931803
        tangentMode: 10
      - time: 0.85
        value: 1.03
        inSlope: 2.0416656
        outSlope: 2.0416656
        tangentMode: 10
      - time: 1
        value: 0.72
        inSlope: -2.0666666
        outSlope: -2.0666666
        tangentMode: 10
      m_PreInfinity: 2
      m_PostInfinity: 2
      m_RotationOrder: 4
    attribute: m_LocalPosition.z
    path: eyes
    classID: 4
    script: {fileID: 0}
  - curve:
      serializedVersion: 2
      m_Curve:
      - time: 0
        value: 0
        inSlope: 0
        outSlope: 0
        tangentMode: 10
      - time: 0.53333336
        value: 0
        inSlope: -47.20911
        outSlope: -47.20911
        tangentMode: 10
      - time: 0.71666664
        value: -17.310001
        inSlope: 95.9996
        outSlope: 95.9996
        tangentMode: 10
      - time: 0.85
        value: 20.879002
        inSlope: 73.61203
        outSlope: 73.61203
        tangentMode: 10
      - time: 1
        value: 0
        inSlope: -139.19336
        outSlope: -139.19336
        tangentMode: 10
      m_PreInfinity: 2
      m_PostInfinity: 2
      m_RotationOrder: 4
    attribute: localEulerAnglesRaw.x
    path: eyes
    classID: 4
    script: {fileID: 0}
  - curve:
      serializedVersion: 2
      m_Curve:
      - time: 0
        value: 0
        inSlope: 132.76874
        outSlope: 132.76874
        tangentMode: 10
      - time: 0.53333336
        value: 70.81
        inSlope: -178.06387
        outSlope: -178.06387
        tangentMode: 10
      - time: 0.71666664
        value: -18.821001
        inSlope: -212.26575
        outSlope: -212.26575
        tangentMode: 10
      - time: 0.85
        value: -10.239
        inSlope: 66.3125
        outSlope: 66.3125
        tangentMode: 10
      - time: 1
        value: 0
        inSlope: 68.26001
        outSlope: 68.26001
        tangentMode: 10
      m_PreInfinity: 2
      m_PostInfinity: 2
      m_RotationOrder: 4
    attribute: localEulerAnglesRaw.y
    path: eyes
    classID: 4
    script: {fileID: 0}
  - curve:
      serializedVersion: 2
      m_Curve:
      - time: 0
        value: 0
        inSlope: 0
        outSlope: 0
        tangentMode: 10
      - time: 0.53333336
        value: 0
        inSlope: 0
        outSlope: 0
        tangentMode: 10
      - time: 0.71666664
        value: 0
        inSlope: 0
        outSlope: 0
        tangentMode: 10
      - time: 0.85
        value: 0
        inSlope: 0
        outSlope: 0
        tangentMode: 10
      - time: 1
        value: 0
        inSlope: 0
        outSlope: 0
        tangentMode: 10
      m_PreInfinity: 2
      m_PostInfinity: 2
      m_RotationOrder: 4
    attribute: localEulerAnglesRaw.z
    path: eyes
    classID: 4
    script: {fileID: 0}
  - curve:
      serializedVersion: 2
      m_Curve:
      - time: 0
        value: 0
        inSlope: 0
        outSlope: 0
        tangentMode: 10
      - time: 1
        value: 0
        inSlope: 0
        outSlope: 0
        tangentMode: 10
      m_PreInfinity: 2
      m_PostInfinity: 2
      m_RotationOrder: 4
    attribute: localEulerAnglesRaw.x
    path: Armature_001/Bone
    classID: 4
    script: {fileID: 0}
  - curve:
      serializedVersion: 2
      m_Curve:
      - time: 0
        value: 89.701004
        inSlope: 0
        outSlope: 0
        tangentMode: 10
      - time: 1
        value: 89.701004
        inSlope: 0
        outSlope: 0
        tangentMode: 10
      m_PreInfinity: 2
      m_PostInfinity: 2
      m_RotationOrder: 4
    attribute: localEulerAnglesRaw.y
    path: Armature_001/Bone
    classID: 4
    script: {fileID: 0}
  - curve:
      serializedVersion: 2
      m_Curve:
      - time: 0
        value: 179.99998
        inSlope: 0
        outSlope: 0
        tangentMode: 10
      - time: 1
        value: 179.99998
        inSlope: 0
        outSlope: 0
        tangentMode: 10
      m_PreInfinity: 2
      m_PostInfinity: 2
      m_RotationOrder: 4
    attribute: localEulerAnglesRaw.z
    path: Armature_001/Bone
    classID: 4
    script: {fileID: 0}
  - curve:
      serializedVersion: 2
      m_Curve:
      - time: 0
        value: 0
        inSlope: 0
        outSlope: 0
        tangentMode: 10
      - time: 0.28333333
        value: 0
        inSlope: 90.878
        outSlope: 90.878
        tangentMode: 10
      - time: 0.53333336
        value: 45.439003
        inSlope: 69.77981
        outSlope: 69.77981
        tangentMode: 10
      - time: 0.71666664
        value: 37.703003
        inSlope: -72.80692
        outSlope: -72.80692
        tangentMode: 10
      - time: 0.85
        value: 23.914001
        inSlope: -131.42209
        outSlope: -131.42209
        tangentMode: 10
      - time: 1
        value: 0
        inSlope: -159.4267
        outSlope: -159.4267
        tangentMode: 10
      m_PreInfinity: 2
      m_PostInfinity: 2
      m_RotationOrder: 4
    attribute: localEulerAnglesRaw.x
    path: Armature_001/Bone/Bone_004
    classID: 4
    script: {fileID: 0}
  - curve:
      serializedVersion: 2
      m_Curve:
      - time: 0
        value: 0
        inSlope: 0
        outSlope: 0
        tangentMode: 10
      - time: 0.28333333
        value: 0
        inSlope: 51.279995
        outSlope: 51.279995
        tangentMode: 10
      - time: 0.53333336
        value: 25.640001
        inSlope: -21.418217
        outSlope: -21.418217
        tangentMode: 10
      - time: 0.71666664
        value: -1.016
        inSlope: -123.0757
        outSlope: -123.0757
        tangentMode: 10
      - time: 0.85
        value: -14.450001
        inSlope: -2.2108078
        outSlope: -2.2108078
        tangentMode: 10
      - time: 1
        value: 0
        inSlope: 96.33335
        outSlope: 96.33335
        tangentMode: 10
      m_PreInfinity: 2
      m_PostInfinity: 2
      m_RotationOrder: 4
    attribute: localEulerAnglesRaw.y
    path: Armature_001/Bone/Bone_004
    classID: 4
    script: {fileID: 0}
  - curve:
      serializedVersion: 2
      m_Curve:
      - time: 0
        value: 0
        inSlope: -53.364708
        outSlope: -53.364708
        tangentMode: 10
      - time: 0.28333333
        value: -15.120001
        inSlope: 20.489647
        outSlope: 20.489647
        tangentMode: 10
      - time: 0.53333336
        value: 8.466001
        inSlope: 83.87837
        outSlope: 83.87837
        tangentMode: 10
      - time: 0.71666664
        value: 21.925001
        inSlope: -113.811066
        outSlope: -113.811066
        tangentMode: 10
      - time: 0.85
        value: -18.213001
        inSlope: -89.80743
        outSlope: -89.80743
        tangentMode: 10
      - time: 1
        value: 0
        inSlope: 121.42003
        outSlope: 121.42003
        tangentMode: 10
      m_PreInfinity: 2
      m_PostInfinity: 2
      m_RotationOrder: 4
    attribute: localEulerAnglesRaw.z
    path: Armature_001/Bone/Bone_004
    classID: 4
    script: {fileID: 0}
  - curve:
      serializedVersion: 2
      m_Curve:
      - time: 0
        value: -0.18816938
        inSlope: 0.000000052592334
        outSlope: 0.000000052592334
        tangentMode: 10
      - time: 0.28333333
        value: -0.18816936
        inSlope: 0.000000026296167
        outSlope: 0.000000026296167
        tangentMode: 10
      - time: 0.53333336
        value: -0.18816936
        inSlope: 0
        outSlope: 0
        tangentMode: 10
      - time: 0.71666664
        value: -0.18816936
        inSlope: 0
        outSlope: 0
        tangentMode: 10
      - time: 0.85
        value: -0.18816936
        inSlope: -0.000000049670547
        outSlope: -0.000000049670547
        tangentMode: 10
      - time: 1
        value: -0.18816938
        inSlope: -0.000000099341094
        outSlope: -0.000000099341094
        tangentMode: 10
      m_PreInfinity: 2
      m_PostInfinity: 2
      m_RotationOrder: 4
    attribute: m_LocalPosition.x
    path: Armature_001/Bone/Bone_004
    classID: 4
    script: {fileID: 0}
  - curve:
      serializedVersion: 2
      m_Curve:
      - time: 0
        value: 0.000000019804993
        inSlope: -0.000000048537878
        outSlope: -0.000000048537878
        tangentMode: 10
      - time: 0.28333333
        value: 0.000000006052595
        inSlope: -0.000000024268939
        outSlope: -0.000000024268939
        tangentMode: 10
      - time: 0.53333336
        value: 0.000000006052595
        inSlope: 0
        outSlope: 0
        tangentMode: 10
      - time: 0.71666664
        value: 0.000000006052595
        inSlope: 0
        outSlope: 0
        tangentMode: 10
      - time: 0.85
        value: 0.000000006052595
        inSlope: 0.000000045841336
        outSlope: 0.000000045841336
        tangentMode: 10
      - time: 1
        value: 0.000000019804993
        inSlope: 0.00000009168267
        outSlope: 0.00000009168267
        tangentMode: 10
      m_PreInfinity: 2
      m_PostInfinity: 2
      m_RotationOrder: 4
    attribute: m_LocalPosition.y
    path: Armature_001/Bone/Bone_004
    classID: 4
    script: {fileID: 0}
  - curve:
      serializedVersion: 2
      m_Curve:
      - time: 0
        value: -0.000000004083464
        inSlope: -0.00000019595711
        outSlope: -0.00000019595711
        tangentMode: 10
      - time: 0.28333333
        value: -0.000000059604645
        inSlope: -0.00000009797856
        outSlope: -0.00000009797856
        tangentMode: 10
      - time: 0.53333336
        value: -0.000000059604645
        inSlope: 0
        outSlope: 0
        tangentMode: 10
      - time: 0.71666664
        value: -0.000000059604645
        inSlope: 0
        outSlope: 0
        tangentMode: 10
      - time: 0.85
        value: -0.000000059604645
        inSlope: 0.00000018507063
        outSlope: 0.00000018507063
        tangentMode: 10
      - time: 1
        value: -0.000000004083464
        inSlope: 0.00000037014127
        outSlope: 0.00000037014127
        tangentMode: 10
      m_PreInfinity: 2
      m_PostInfinity: 2
      m_RotationOrder: 4
    attribute: m_LocalPosition.z
    path: Armature_001/Bone/Bone_004
    classID: 4
    script: {fileID: 0}
  m_EulerEditorCurves:
  - curve:
      serializedVersion: 2
      m_Curve: []
      m_PreInfinity: 2
      m_PostInfinity: 2
      m_RotationOrder: 4
    attribute: m_LocalEulerAngles.z
    path: Armature_001/Bone
    classID: 4
    script: {fileID: 0}
  - curve:
      serializedVersion: 2
      m_Curve: []
      m_PreInfinity: 2
      m_PostInfinity: 2
      m_RotationOrder: 4
    attribute: m_LocalEulerAngles.y
    path: Armature_001/Bone
    classID: 4
    script: {fileID: 0}
  - curve:
      serializedVersion: 2
      m_Curve: []
      m_PreInfinity: 2
      m_PostInfinity: 2
      m_RotationOrder: 4
    attribute: m_LocalEulerAngles.x
    path: Armature_001/Bone
    classID: 4
    script: {fileID: 0}
  - curve:
      serializedVersion: 2
      m_Curve: []
      m_PreInfinity: 2
      m_PostInfinity: 2
      m_RotationOrder: 4
    attribute: m_LocalEulerAngles.z
    path: Armature_001/Bone/Bone_004
    classID: 4
    script: {fileID: 0}
  - curve:
      serializedVersion: 2
      m_Curve: []
      m_PreInfinity: 2
      m_PostInfinity: 2
      m_RotationOrder: 4
    attribute: m_LocalEulerAngles.y
    path: Armature_001/Bone/Bone_004
    classID: 4
    script: {fileID: 0}
  - curve:
      serializedVersion: 2
      m_Curve: []
      m_PreInfinity: 2
      m_PostInfinity: 2
      m_RotationOrder: 4
    attribute: m_LocalEulerAngles.x
    path: Armature_001/Bone/Bone_004
    classID: 4
    script: {fileID: 0}
  - curve:
      serializedVersion: 2
      m_Curve: []
      m_PreInfinity: 2
      m_PostInfinity: 2
      m_RotationOrder: 4
    attribute: m_LocalEulerAngles.x
    path: eyes
    classID: 4
    script: {fileID: 0}
  - curve:
      serializedVersion: 2
      m_Curve: []
      m_PreInfinity: 2
      m_PostInfinity: 2
      m_RotationOrder: 4
    attribute: m_LocalEulerAngles.y
    path: eyes
    classID: 4
    script: {fileID: 0}
  - curve:
      serializedVersion: 2
      m_Curve: []
      m_PreInfinity: 2
      m_PostInfinity: 2
      m_RotationOrder: 4
    attribute: m_LocalEulerAngles.z
    path: eyes
    classID: 4
    script: {fileID: 0}
  m_HasGenericRootTransform: 0
  m_HasMotionFloatCurves: 0
  m_GenerateMotionCurves: 0
  m_Events: []
